^C:\Users\AutoLogon\Desktop\dbs211_final_project\DBS211_Final_Project\DBS211_Final_Project.vcxproj
C:\Users\AutoLogon\Desktop\dbs211_final_project\x64\Release\DBS211_Final_Project.ipdb
C:\Users\AutoLogon\Desktop\dbs211_final_project\x64\Release\DBS211_Final_Project.iobj
^C:\Users\AutoLogon\Desktop\dbs211_final_project\DBS211_Final_Project\DBS211_Final_Project.vcxproj
C:\Users\AutoLogon\Desktop\dbs211_final_project\x64\Release\DBS211_Final_Project.ipdb
C:\Users\AutoLogon\Desktop\dbs211_final_project\x64\Release\DBS211_Final_Project.iobj
