<?xml version="1.0" encoding="utf-8" ?>
<!-- DO NOT EDIT THIS FILE -->

<log version='2.0' source='mc'>
	<!-- Successfully loaded CCRT at address 0x6f640000 - 0x6f9eb000 -->
	<!-- Successfully loaded MC at address 0x6fa80000 - 0x6ff24000 -->
	<!-- Analysis started for c:\users\autologon\desktop\dbs211_final_project\x64\release\dbs211_final_project.exe, pid = 7692 -->
	<msg id='1' source='mc'>
		<type>EXEC_OF_INTEREST</type>
		<severity>INFO</severity>
		<timestamp>Thu Jul 16 23:16:29 2020</timestamp>
		<arg name='path'>c:\users\autologon\desktop\dbs211_final_project\x64\release\dbs211_final_project.exe</arg>
		<arg name='pid'>7692</arg>
	</msg>
	<!-- Command line: C:\Program Files (x86)\IntelSWTools\Inspector 2020\bin32\pin -xyzzy -mesgoff console -xyzzy -bridge_save_x87 0 -bridge_save_mxcsr 0 -follow_execv -error_file C:\Users\AutoLogon\Desktop\DBS211_Final_Project\DBS211_Final_Project\My Inspector Results - DBS211_Final_Project\r003mi1\data.0\pin_error.log -logfile C:\Users\AutoLogon\Desktop\DBS211_Final_Project\DBS211_Final_Project\My Inspector Results - DBS211_Final_Project\r003mi1\data.0\pin.log -xyzzy -region_max_inss 500 -p64 C:\Program Files (x86)\IntelSWTools\Inspector 2020\bin64\pin -t64 C:\Program Files (x86)\IntelSWTools\Inspector 2020\bin64\memchkr.dll -t C:\Program Files (x86)\IntelSWTools\Inspector 2020\bin32\memchkr.dll -no-analyze-stack -no-access-checks -leak-check-on-exit -leak-check-report-reachable -check-resource-leaks -freelist-vol 0 -leak-maximum 100000 -guard-zone-size 0 -stack-depth 8 -heartbeat 1 -mrte-mode auto -working-dir C:\Users\AutoLogon\Desktop\DBS211_Final_Project\DBS211_Final_Project\My Inspector Results - DBS211_Final_Project\r003mi1\data.0 -support_jit_api -log mc_DBS211_Final_Project.log -result DBS211_Final_Project - C:\Users\AutoLogon\Desktop\DBS211_Final_Project\x64\Release\DBS211_Final_Project.exe  -->
	<!-- mc's options are the following:  -->
	<!-- -help                              false -->
	<!-- -verbose                           false -->
	<!-- -xyzzy                             false -->
	<!-- -version                           false -->
	<!-- -help-all                          false -->
	<!-- -xyzzy-all                         false -->
	<!-- -report-all-instances              false -->
	<!-- -check-for-padded-structures       true -->
	<!-- -check-for-bitfields               true -->
	<!-- -analyze-stack                     false -->
	<!-- -access-checks                     false -->
	<!-- -track-origins                     true -->
	<!-- -duplicate-uninits                 false -->
	<!-- -bss-initialized                   true -->
	<!-- -align-alloc-size                  false -->
	<!-- -report-uninit-read                false -->
	<!-- -ignore-system-libraries           false -->
	<!-- -gen-suppressions                  false -->
	<!-- -leak-check-on-exit                true -->
	<!-- -leak-check-on-demand              false -->
	<!-- -leak-check-uses-baseline          true -->
	<!-- -enable-memory-growth              false -->
	<!-- -leak-check-report-reachable       true -->
	<!-- -leak-check-full                   true -->
	<!-- -check-resource-leaks              true -->
	<!-- -trace-children                    false -->
	<!-- -enable-poke                       false -->
	<!-- -jit-mode-anyway                   false -->
	<!-- -disable-probe-mode-mismatches-64  true -->
	<!-- -aggressive-callstack-caching      false -->
	<!-- -suppress-breakpoints              false -->
	<!-- -monitor-memory                    false -->
	<!-- -freelist-vol                      0 -->
	<!-- -leak-maximum                      100000 -->
	<!-- -guard-zone-size                   0 -->
	<!-- -stack-depth                       8 -->
	<!-- -heartbeat                         1 -->
	<!-- -breakpoint-file                   (null) -->
	<!-- -config-file                       (null) -->
	<!-- -log                               mc_dbs211_final_project.log -->
	<!-- -ignore-commands                   (null),  -->
	<!-- -ignore-modules                    (null),  -->
	<!-- -ignore-symbols                    (null),  -->
	<!-- -module-of-interest                (null),  -->
	<!-- -executable-of-interest            (null),  -->
	<!-- -working-dir                       c:\users\autologon\desktop\dbs211_final_project\dbs211_final_project\my inspector results - dbs211_final_project\r003mi1\data.0 -->
	<!-- -result                            dbs211_final_project -->
	<!-- -exclude-module                    (null),  -->
	<!-- -include-module                    (null),  -->
	<!-- -only-exec-commands                (null),  -->
	<!-- -suppressions                      (null),  -->
	<!-- -debug                             none -->
	<!-- -shared-mem-name                   (null) -->
	<!-- -poke-function                     (null),  -->
	<!-- -analysis-mode                     (null) -->
	<!-- -disable-gatekeeping               false -->
	<!-- -ignore-os-allocators              false -->
	<!-- -mrte-mode                         auto -->
	<!-- probe mode: yes -->
	<!-- mem leaks checks: yes -->
	<!-- res leaks checks: yes -->
	<!-- access checks: no -->
	<!-- track origin: no -->
	<!-- Environment: INTEL_LIBITTNOTIFY32=C:\Program Files (x86)\IntelSWTools\Inspector 2020\bin32\runtime\libittnotify.dll -->
	<!-- Environment: INTEL_LIBITTNOTIFY64=C:\Program Files (x86)\IntelSWTools\Inspector 2020\bin64\runtime\libittnotify.dll -->
	<!-- Environment: INTEL_JIT_PROFILER32=C:\Program Files (x86)\IntelSWTools\Inspector 2020\bin32\pinjitprofiling.dll -->
	<!-- Environment: INTEL_JIT_PROFILER64=C:\Program Files (x86)\IntelSWTools\Inspector 2020\bin64\pinjitprofiling.dll -->
	<!-- DIAG: 1 -->
	<!-- Module loaded c:\users\autologon\desktop\dbs211_final_project\x64\release\dbs211_final_project.exe, address range [0x00007ff788460000-0x00007ff78846dfff] -->
	<msg id='2' source='mc'>
		<type>MODULE_LOAD</type>
		<severity>INFO</severity>
		<timestamp>Thu Jul 16 23:16:29 2020</timestamp>
		<arg name='path'>c:\users\autologon\desktop\dbs211_final_project\x64\release\dbs211_final_project.exe</arg>
		<arg name='addr1'>0x7ff788460000</arg>
		<arg name='addr2'>0x7ff78846dfff</arg>
	</msg>
	<!-- Module loaded c:\windows\system32\kernelbase.dll, address range [0x00007ffdac2d0000-0x00007ffdac564fff], minimal analysis -->
	<msg id='3' source='mc'>
		<type>MODULE_LOAD_NO_ANALYSIS</type>
		<severity>INFO</severity>
		<timestamp>Thu Jul 16 23:16:29 2020</timestamp>
		<arg name='path'>c:\windows\system32\kernelbase.dll</arg>
		<arg name='addr1'>0x7ffdac2d0000</arg>
		<arg name='addr2'>0x7ffdac564fff</arg>
	</msg>
	<!-- entry point not safe for probe insertion in kernel32.dll -->
	<!-- Module loaded c:\windows\system32\kernel32.dll, address range [0x00007ffdad870000-0x00007ffdad922fff], minimal analysis -->
	<msg id='4' source='mc'>
		<type>MODULE_LOAD_NO_ANALYSIS</type>
		<severity>INFO</severity>
		<timestamp>Thu Jul 16 23:16:30 2020</timestamp>
		<arg name='path'>c:\windows\system32\kernel32.dll</arg>
		<arg name='addr1'>0x7ffdad870000</arg>
		<arg name='addr2'>0x7ffdad922fff</arg>
	</msg>
	<!-- Module loaded c:\windows\system32\ntdll.dll, address range [0x00007ffdafd90000-0x00007ffdaff7cfff], minimal analysis -->
	<msg id='5' source='mc'>
		<type>MODULE_LOAD_NO_ANALYSIS</type>
		<severity>INFO</severity>
		<timestamp>Thu Jul 16 23:16:31 2020</timestamp>
		<arg name='path'>c:\windows\system32\ntdll.dll</arg>
		<arg name='addr1'>0x7ffdafd90000</arg>
		<arg name='addr2'>0x7ffdaff7cfff</arg>
	</msg>
	<!-- Module loaded c:\program files (x86)\intelswtools\inspector 2020\bin64\dnclrprofinfo.dll, address range [0x00007ffda0430000-0x00007ffda0458fff] -->
	<msg id='6' source='mc'>
		<type>MODULE_LOAD</type>
		<severity>INFO</severity>
		<timestamp>Thu Jul 16 23:16:31 2020</timestamp>
		<arg name='path'>c:\program files (x86)\intelswtools\inspector 2020\bin64\dnclrprofinfo.dll</arg>
		<arg name='addr1'>0x7ffda0430000</arg>
		<arg name='addr2'>0x7ffda0458fff</arg>
	</msg>
	<!-- Module loaded c:\windows\system32\ucrtbase.dll, address range [0x00007ffdac150000-0x00007ffdac249fff] -->
	<msg id='7' source='mc'>
		<type>MODULE_LOAD</type>
		<severity>INFO</severity>
		<timestamp>Thu Jul 16 23:16:31 2020</timestamp>
		<arg name='path'>c:\windows\system32\ucrtbase.dll</arg>
		<arg name='addr1'>0x7ffdac150000</arg>
		<arg name='addr2'>0x7ffdac249fff</arg>
	</msg>
	<!-- Module loaded c:\instantclient_19_6\oraocci19.dll, address range [0x00007ffd63ad0000-0x00007ffd63beefff] -->
	<msg id='8' source='mc'>
		<type>MODULE_LOAD</type>
		<severity>INFO</severity>
		<timestamp>Thu Jul 16 23:16:33 2020</timestamp>
		<arg name='path'>c:\instantclient_19_6\oraocci19.dll</arg>
		<arg name='addr1'>0x7ffd63ad0000</arg>
		<arg name='addr2'>0x7ffd63beefff</arg>
	</msg>
	<!-- Module loaded c:\windows\system32\advapi32.dll, address range [0x00007ffdada90000-0x00007ffdadb32fff], minimal analysis -->
	<msg id='9' source='mc'>
		<type>MODULE_LOAD_NO_ANALYSIS</type>
		<severity>INFO</severity>
		<timestamp>Thu Jul 16 23:16:33 2020</timestamp>
		<arg name='path'>c:\windows\system32\advapi32.dll</arg>
		<arg name='addr1'>0x7ffdada90000</arg>
		<arg name='addr2'>0x7ffdadb32fff</arg>
	</msg>
	<!-- Module loaded c:\windows\system32\msvcrt.dll, address range [0x0000017d911c0000-0x0000017d9125dfff], minimal analysis -->
	<msg id='10' source='mc'>
		<type>MODULE_LOAD_NO_ANALYSIS</type>
		<severity>INFO</severity>
		<timestamp>Thu Jul 16 23:16:33 2020</timestamp>
		<arg name='path'>c:\windows\system32\msvcrt.dll</arg>
		<arg name='addr1'>0x17d911c0000</arg>
		<arg name='addr2'>0x17d9125dfff</arg>
	</msg>
	<!-- Module loaded c:\windows\system32\sechost.dll, address range [0x00007ffdadec0000-0x00007ffdadf5dfff] -->
	<msg id='11' source='mc'>
		<type>MODULE_LOAD</type>
		<severity>INFO</severity>
		<timestamp>Thu Jul 16 23:16:33 2020</timestamp>
		<arg name='path'>c:\windows\system32\sechost.dll</arg>
		<arg name='addr1'>0x7ffdadec0000</arg>
		<arg name='addr2'>0x7ffdadf5dfff</arg>
	</msg>
	<!-- Module loaded c:\windows\system32\rpcrt4.dll, address range [0x00007ffdaf900000-0x00007ffdafa21fff], minimal analysis -->
	<msg id='12' source='mc'>
		<type>MODULE_LOAD_NO_ANALYSIS</type>
		<severity>INFO</severity>
		<timestamp>Thu Jul 16 23:16:34 2020</timestamp>
		<arg name='path'>c:\windows\system32\rpcrt4.dll</arg>
		<arg name='addr1'>0x7ffdaf900000</arg>
		<arg name='addr2'>0x7ffdafa21fff</arg>
	</msg>
	<!-- Module loaded c:\windows\system32\msvcp140.dll, address range [0x00007ffd688b0000-0x00007ffd6894cfff] -->
	<msg id='13' source='mc'>
		<type>MODULE_LOAD</type>
		<severity>INFO</severity>
		<timestamp>Thu Jul 16 23:16:34 2020</timestamp>
		<arg name='path'>c:\windows\system32\msvcp140.dll</arg>
		<arg name='addr1'>0x7ffd688b0000</arg>
		<arg name='addr2'>0x7ffd6894cfff</arg>
	</msg>
	<!-- Module loaded c:\windows\system32\vcruntime140_1.dll, address range [0x00007ffda94a0000-0x00007ffda94abfff] -->
	<msg id='14' source='mc'>
		<type>MODULE_LOAD</type>
		<severity>INFO</severity>
		<timestamp>Thu Jul 16 23:16:34 2020</timestamp>
		<arg name='path'>c:\windows\system32\vcruntime140_1.dll</arg>
		<arg name='addr1'>0x7ffda94a0000</arg>
		<arg name='addr2'>0x7ffda94abfff</arg>
	</msg>
	<!-- Module loaded c:\windows\system32\vcruntime140.dll, address range [0x00007ffda1a30000-0x00007ffda1a46fff] -->
	<msg id='15' source='mc'>
		<type>MODULE_LOAD</type>
		<severity>INFO</severity>
		<timestamp>Thu Jul 16 23:16:34 2020</timestamp>
		<arg name='path'>c:\windows\system32\vcruntime140.dll</arg>
		<arg name='addr1'>0x7ffda1a30000</arg>
		<arg name='addr2'>0x7ffda1a46fff</arg>
	</msg>
	<!-- Module loaded c:\instantclient_19_6\oraociei19.dll, address range [0x00007ffd42d70000-0x00007ffd4f1b5fff] -->
	<msg id='16' source='mc'>
		<type>MODULE_LOAD</type>
		<severity>INFO</severity>
		<timestamp>Thu Jul 16 23:16:35 2020</timestamp>
		<arg name='path'>c:\instantclient_19_6\oraociei19.dll</arg>
		<arg name='addr1'>0x7ffd42d70000</arg>
		<arg name='addr2'>0x7ffd4f1b5fff</arg>
	</msg>
	<!-- Module loaded c:\windows\system32\ws2_32.dll, address range [0x00007ffdae370000-0x00007ffdae3dcfff] -->
	<msg id='17' source='mc'>
		<type>MODULE_LOAD</type>
		<severity>INFO</severity>
		<timestamp>Thu Jul 16 23:16:35 2020</timestamp>
		<arg name='path'>c:\windows\system32\ws2_32.dll</arg>
		<arg name='addr1'>0x7ffdae370000</arg>
		<arg name='addr2'>0x7ffdae3dcfff</arg>
	</msg>
	<!-- Module loaded c:\windows\system32\shell32.dll, address range [0x00007ffdae3e0000-0x00007ffdaf8d7fff], minimal analysis -->
	<msg id='18' source='mc'>
		<type>MODULE_LOAD_NO_ANALYSIS</type>
		<severity>INFO</severity>
		<timestamp>Thu Jul 16 23:16:35 2020</timestamp>
		<arg name='path'>c:\windows\system32\shell32.dll</arg>
		<arg name='addr1'>0x7ffdae3e0000</arg>
		<arg name='addr2'>0x7ffdaf8d7fff</arg>
	</msg>
	<!-- Module loaded c:\windows\system32\cfgmgr32.dll, address range [0x00007ffdabe80000-0x00007ffdabec9fff] -->
	<msg id='19' source='mc'>
		<type>MODULE_LOAD</type>
		<severity>INFO</severity>
		<timestamp>Thu Jul 16 23:16:36 2020</timestamp>
		<arg name='path'>c:\windows\system32\cfgmgr32.dll</arg>
		<arg name='addr1'>0x7ffdabe80000</arg>
		<arg name='addr2'>0x7ffdabec9fff</arg>
	</msg>
	<!-- Module loaded c:\windows\system32\shcore.dll, address range [0x0000017d8b820000-0x0000017d8b8c7fff], minimal analysis -->
	<msg id='20' source='mc'>
		<type>MODULE_LOAD_NO_ANALYSIS</type>
		<severity>INFO</severity>
		<timestamp>Thu Jul 16 23:16:37 2020</timestamp>
		<arg name='path'>c:\windows\system32\shcore.dll</arg>
		<arg name='addr1'>0x17d8b820000</arg>
		<arg name='addr2'>0x17d8b8c7fff</arg>
	</msg>
	<!-- Module loaded c:\windows\system32\combase.dll, address range [0x00007ffdafa30000-0x00007ffdafd5bfff], minimal analysis -->
	<msg id='21' source='mc'>
		<type>MODULE_LOAD_NO_ANALYSIS</type>
		<severity>INFO</severity>
		<timestamp>Thu Jul 16 23:16:37 2020</timestamp>
		<arg name='path'>c:\windows\system32\combase.dll</arg>
		<arg name='addr1'>0x7ffdafa30000</arg>
		<arg name='addr2'>0x7ffdafd5bfff</arg>
	</msg>
	<!-- Module loaded c:\windows\system32\bcryptprimitives.dll, address range [0x0000017d8baf0000-0x0000017d8bb6dfff], minimal analysis -->
	<msg id='22' source='mc'>
		<type>MODULE_LOAD_NO_ANALYSIS</type>
		<severity>INFO</severity>
		<timestamp>Thu Jul 16 23:16:37 2020</timestamp>
		<arg name='path'>c:\windows\system32\bcryptprimitives.dll</arg>
		<arg name='addr1'>0x17d8baf0000</arg>
		<arg name='addr2'>0x17d8bb6dfff</arg>
	</msg>
	<!-- Module loaded c:\windows\system32\windows.storage.dll, address range [0x00007ffdac860000-0x00007ffdacfaefff] -->
	<msg id='23' source='mc'>
		<type>MODULE_LOAD</type>
		<severity>INFO</severity>
		<timestamp>Thu Jul 16 23:16:37 2020</timestamp>
		<arg name='path'>c:\windows\system32\windows.storage.dll</arg>
		<arg name='addr1'>0x7ffdac860000</arg>
		<arg name='addr2'>0x7ffdacfaefff</arg>
	</msg>
	<!-- Module loaded c:\windows\system32\msvcp_win.dll, address range [0x00007ffdac0b0000-0x00007ffdac14ffff] -->
	<msg id='24' source='mc'>
		<type>MODULE_LOAD</type>
		<severity>INFO</severity>
		<timestamp>Thu Jul 16 23:16:38 2020</timestamp>
		<arg name='path'>c:\windows\system32\msvcp_win.dll</arg>
		<arg name='addr1'>0x7ffdac0b0000</arg>
		<arg name='addr2'>0x7ffdac14ffff</arg>
	</msg>
	<!-- Module loaded c:\windows\system32\profapi.dll, address range [0x00007ffdabda0000-0x00007ffdabdc3fff] -->
	<msg id='25' source='mc'>
		<type>MODULE_LOAD</type>
		<severity>INFO</severity>
		<timestamp>Thu Jul 16 23:16:38 2020</timestamp>
		<arg name='path'>c:\windows\system32\profapi.dll</arg>
		<arg name='addr1'>0x7ffdabda0000</arg>
		<arg name='addr2'>0x7ffdabdc3fff</arg>
	</msg>
	<!-- Module loaded c:\windows\system32\powrprof.dll, address range [0x00007ffdabdd0000-0x00007ffdabe2cfff] -->
	<msg id='26' source='mc'>
		<type>MODULE_LOAD</type>
		<severity>INFO</severity>
		<timestamp>Thu Jul 16 23:16:38 2020</timestamp>
		<arg name='path'>c:\windows\system32\powrprof.dll</arg>
		<arg name='addr1'>0x7ffdabdd0000</arg>
		<arg name='addr2'>0x7ffdabe2cfff</arg>
	</msg>
	<!-- Module loaded c:\windows\system32\shlwapi.dll, address range [0x00007ffdad810000-0x00007ffdad861fff] -->
	<msg id='27' source='mc'>
		<type>MODULE_LOAD</type>
		<severity>INFO</severity>
		<timestamp>Thu Jul 16 23:16:38 2020</timestamp>
		<arg name='path'>c:\windows\system32\shlwapi.dll</arg>
		<arg name='addr1'>0x7ffdad810000</arg>
		<arg name='addr2'>0x7ffdad861fff</arg>
	</msg>
	<!-- Module loaded c:\windows\system32\gdi32.dll, address range [0x00007ffdada30000-0x00007ffdada58fff], minimal analysis -->
	<msg id='28' source='mc'>
		<type>MODULE_LOAD_NO_ANALYSIS</type>
		<severity>INFO</severity>
		<timestamp>Thu Jul 16 23:16:38 2020</timestamp>
		<arg name='path'>c:\windows\system32\gdi32.dll</arg>
		<arg name='addr1'>0x7ffdada30000</arg>
		<arg name='addr2'>0x7ffdada58fff</arg>
	</msg>
	<!-- Module loaded c:\windows\system32\gdi32full.dll, address range [0x00007ffdabf10000-0x00007ffdac0a9fff], minimal analysis -->
	<msg id='29' source='mc'>
		<type>MODULE_LOAD_NO_ANALYSIS</type>
		<severity>INFO</severity>
		<timestamp>Thu Jul 16 23:16:39 2020</timestamp>
		<arg name='path'>c:\windows\system32\gdi32full.dll</arg>
		<arg name='addr1'>0x7ffdabf10000</arg>
		<arg name='addr2'>0x7ffdac0a9fff</arg>
	</msg>
	<!-- Module loaded c:\windows\system32\user32.dll, address range [0x00007ffdae1d0000-0x00007ffdae366fff], minimal analysis -->
	<msg id='30' source='mc'>
		<type>MODULE_LOAD_NO_ANALYSIS</type>
		<severity>INFO</severity>
		<timestamp>Thu Jul 16 23:16:39 2020</timestamp>
		<arg name='path'>c:\windows\system32\user32.dll</arg>
		<arg name='addr1'>0x7ffdae1d0000</arg>
		<arg name='addr2'>0x7ffdae366fff</arg>
	</msg>
	<!-- Module loaded c:\windows\system32\win32u.dll, address range [0x00007ffdabed0000-0x00007ffdabeeffff] -->
	<msg id='31' source='mc'>
		<type>MODULE_LOAD</type>
		<severity>INFO</severity>
		<timestamp>Thu Jul 16 23:16:39 2020</timestamp>
		<arg name='path'>c:\windows\system32\win32u.dll</arg>
		<arg name='addr1'>0x7ffdabed0000</arg>
		<arg name='addr2'>0x7ffdabeeffff</arg>
	</msg>
	<!-- Module loaded c:\windows\system32\kernel.appcore.dll, address range [0x00007ffdabd80000-0x00007ffdabd90fff] -->
	<msg id='32' source='mc'>
		<type>MODULE_LOAD</type>
		<severity>INFO</severity>
		<timestamp>Thu Jul 16 23:16:39 2020</timestamp>
		<arg name='path'>c:\windows\system32\kernel.appcore.dll</arg>
		<arg name='addr1'>0x7ffdabd80000</arg>
		<arg name='addr2'>0x7ffdabd90fff</arg>
	</msg>
	<!-- Module loaded c:\windows\system32\cryptsp.dll, address range [0x00007ffdabef0000-0x00007ffdabf06fff] -->
	<msg id='33' source='mc'>
		<type>MODULE_LOAD</type>
		<severity>INFO</severity>
		<timestamp>Thu Jul 16 23:16:39 2020</timestamp>
		<arg name='path'>c:\windows\system32\cryptsp.dll</arg>
		<arg name='addr1'>0x7ffdabef0000</arg>
		<arg name='addr2'>0x7ffdabf06fff</arg>
	</msg>
	<!-- Module loaded c:\windows\system32\ole32.dll, address range [0x00007ffdad230000-0x00007ffdad384fff], minimal analysis -->
	<msg id='34' source='mc'>
		<type>MODULE_LOAD_NO_ANALYSIS</type>
		<severity>INFO</severity>
		<timestamp>Thu Jul 16 23:16:39 2020</timestamp>
		<arg name='path'>c:\windows\system32\ole32.dll</arg>
		<arg name='addr1'>0x7ffdad230000</arg>
		<arg name='addr2'>0x7ffdad384fff</arg>
	</msg>
	<!-- Module loaded c:\windows\system32\oleaut32.dll, address range [0x00007ffdae0a0000-0x00007ffdae163fff], minimal analysis -->
	<msg id='35' source='mc'>
		<type>MODULE_LOAD_NO_ANALYSIS</type>
		<severity>INFO</severity>
		<timestamp>Thu Jul 16 23:16:39 2020</timestamp>
		<arg name='path'>c:\windows\system32\oleaut32.dll</arg>
		<arg name='addr1'>0x7ffdae0a0000</arg>
		<arg name='addr2'>0x7ffdae163fff</arg>
	</msg>
	<!-- Module loaded c:\windows\system32\crypt32.dll, address range [0x00007ffdac620000-0x00007ffdac7fbfff] -->
	<msg id='36' source='mc'>
		<type>MODULE_LOAD</type>
		<severity>INFO</severity>
		<timestamp>Thu Jul 16 23:16:40 2020</timestamp>
		<arg name='path'>c:\windows\system32\crypt32.dll</arg>
		<arg name='addr1'>0x7ffdac620000</arg>
		<arg name='addr2'>0x7ffdac7fbfff</arg>
	</msg>
	<!-- Module loaded c:\windows\system32\msasn1.dll, address range [0x00007ffdabe30000-0x00007ffdabe41fff] -->
	<msg id='37' source='mc'>
		<type>MODULE_LOAD</type>
		<severity>INFO</severity>
		<timestamp>Thu Jul 16 23:16:40 2020</timestamp>
		<arg name='path'>c:\windows\system32\msasn1.dll</arg>
		<arg name='addr1'>0x7ffdabe30000</arg>
		<arg name='addr2'>0x7ffdabe41fff</arg>
	</msg>
	<!-- Module loaded c:\instantclient_19_6\oraons.dll, address range [0x00007ffd937d0000-0x00007ffd9381cfff] -->
	<msg id='38' source='mc'>
		<type>MODULE_LOAD</type>
		<severity>INFO</severity>
		<timestamp>Thu Jul 16 23:16:40 2020</timestamp>
		<arg name='path'>c:\instantclient_19_6\oraons.dll</arg>
		<arg name='addr1'>0x7ffd937d0000</arg>
		<arg name='addr2'>0x7ffd9381cfff</arg>
	</msg>
	<!-- Module loaded c:\windows\system32\iphlpapi.dll, address range [0x00007ffdab260000-0x00007ffdab29cfff] -->
	<msg id='39' source='mc'>
		<type>MODULE_LOAD</type>
		<severity>INFO</severity>
		<timestamp>Thu Jul 16 23:16:40 2020</timestamp>
		<arg name='path'>c:\windows\system32\iphlpapi.dll</arg>
		<arg name='addr1'>0x7ffdab260000</arg>
		<arg name='addr2'>0x7ffdab29cfff</arg>
	</msg>
	<!-- Module loaded c:\windows\system32\netapi32.dll, address range [0x00007ffd94d90000-0x00007ffd94da6fff] -->
	<msg id='40' source='mc'>
		<type>MODULE_LOAD</type>
		<severity>INFO</severity>
		<timestamp>Thu Jul 16 23:16:40 2020</timestamp>
		<arg name='path'>c:\windows\system32\netapi32.dll</arg>
		<arg name='addr1'>0x7ffd94d90000</arg>
		<arg name='addr2'>0x7ffd94da6fff</arg>
	</msg>
	<!-- Module loaded c:\windows\system32\dnsapi.dll, address range [0x00007ffdab2a0000-0x00007ffdab366fff] -->
	<msg id='41' source='mc'>
		<type>MODULE_LOAD</type>
		<severity>INFO</severity>
		<timestamp>Thu Jul 16 23:16:41 2020</timestamp>
		<arg name='path'>c:\windows\system32\dnsapi.dll</arg>
		<arg name='addr1'>0x7ffdab2a0000</arg>
		<arg name='addr2'>0x7ffdab366fff</arg>
	</msg>
	<!-- Module loaded c:\windows\system32\nsi.dll, address range [0x00007ffdadeb0000-0x00007ffdadeb7fff] -->
	<msg id='42' source='mc'>
		<type>MODULE_LOAD</type>
		<severity>INFO</severity>
		<timestamp>Thu Jul 16 23:16:41 2020</timestamp>
		<arg name='path'>c:\windows\system32\nsi.dll</arg>
		<arg name='addr1'>0x7ffdadeb0000</arg>
		<arg name='addr2'>0x7ffdadeb7fff</arg>
	</msg>
	<!-- Module loaded c:\windows\system32\secur32.dll, address range [0x00007ffd94d80000-0x00007ffd94d8bfff], minimal analysis -->
	<msg id='43' source='mc'>
		<type>MODULE_LOAD_NO_ANALYSIS</type>
		<severity>INFO</severity>
		<timestamp>Thu Jul 16 23:16:41 2020</timestamp>
		<arg name='path'>c:\windows\system32\secur32.dll</arg>
		<arg name='addr1'>0x7ffd94d80000</arg>
		<arg name='addr2'>0x7ffd94d8bfff</arg>
	</msg>
	<!-- Module loaded c:\windows\system32\cryptui.dll, address range [0x00007ffd94bc0000-0x00007ffd94c56fff] -->
	<msg id='44' source='mc'>
		<type>MODULE_LOAD</type>
		<severity>INFO</severity>
		<timestamp>Thu Jul 16 23:16:41 2020</timestamp>
		<arg name='path'>c:\windows\system32\cryptui.dll</arg>
		<arg name='addr1'>0x7ffd94bc0000</arg>
		<arg name='addr2'>0x7ffd94c56fff</arg>
	</msg>
	<!-- Module loaded c:\windows\system32\bcrypt.dll, address range [0x00007ffdabe50000-0x00007ffdabe75fff] -->
	<msg id='45' source='mc'>
		<type>MODULE_LOAD</type>
		<severity>INFO</severity>
		<timestamp>Thu Jul 16 23:16:41 2020</timestamp>
		<arg name='path'>c:\windows\system32\bcrypt.dll</arg>
		<arg name='addr1'>0x7ffdabe50000</arg>
		<arg name='addr2'>0x7ffdabe75fff</arg>
	</msg>
	<!-- Module loaded c:\windows\system32\samcli.dll, address range [0x00007ffd9f2d0000-0x00007ffd9f2e7fff] -->
	<msg id='46' source='mc'>
		<type>MODULE_LOAD</type>
		<severity>INFO</severity>
		<timestamp>Thu Jul 16 23:16:41 2020</timestamp>
		<arg name='path'>c:\windows\system32\samcli.dll</arg>
		<arg name='addr1'>0x7ffd9f2d0000</arg>
		<arg name='addr2'>0x7ffd9f2e7fff</arg>
	</msg>
	<!-- Module loaded c:\windows\system32\srvcli.dll, address range [0x00007ffd94130000-0x00007ffd94155fff] -->
	<msg id='47' source='mc'>
		<type>MODULE_LOAD</type>
		<severity>INFO</severity>
		<timestamp>Thu Jul 16 23:16:41 2020</timestamp>
		<arg name='path'>c:\windows\system32\srvcli.dll</arg>
		<arg name='addr1'>0x7ffd94130000</arg>
		<arg name='addr2'>0x7ffd94155fff</arg>
	</msg>
	<!-- Module loaded c:\windows\system32\netutils.dll, address range [0x00007ffdab370000-0x00007ffdab37dfff] -->
	<msg id='48' source='mc'>
		<type>MODULE_LOAD</type>
		<severity>INFO</severity>
		<timestamp>Thu Jul 16 23:16:41 2020</timestamp>
		<arg name='path'>c:\windows\system32\netutils.dll</arg>
		<arg name='addr1'>0x7ffdab370000</arg>
		<arg name='addr2'>0x7ffdab37dfff</arg>
	</msg>
	<!-- Module loaded c:\windows\system32\sspicli.dll, address range [0x00007ffdabca0000-0x00007ffdabcd5fff], minimal analysis -->
	<msg id='49' source='mc'>
		<type>MODULE_LOAD_NO_ANALYSIS</type>
		<severity>INFO</severity>
		<timestamp>Thu Jul 16 23:16:42 2020</timestamp>
		<arg name='path'>c:\windows\system32\sspicli.dll</arg>
		<arg name='addr1'>0x7ffdabca0000</arg>
		<arg name='addr2'>0x7ffdabcd5fff</arg>
	</msg>
	<!-- Module loaded c:\windows\system32\imm32.dll, address range [0x0000017d92950000-0x0000017d9297dfff], minimal analysis -->
	<msg id='50' source='mc'>
		<type>MODULE_LOAD_NO_ANALYSIS</type>
		<severity>INFO</severity>
		<timestamp>Thu Jul 16 23:16:42 2020</timestamp>
		<arg name='path'>c:\windows\system32\imm32.dll</arg>
		<arg name='addr1'>0x17d92950000</arg>
		<arg name='addr2'>0x17d9297dfff</arg>
	</msg>
	<!-- Module loaded c:\windows\system32\mswsock.dll, address range [0x00007ffdab530000-0x00007ffdab596fff] -->
	<msg id='51' source='mc'>
		<type>MODULE_LOAD</type>
		<severity>INFO</severity>
		<timestamp>Thu Jul 16 23:16:42 2020</timestamp>
		<arg name='path'>c:\windows\system32\mswsock.dll</arg>
		<arg name='addr1'>0x7ffdab530000</arg>
		<arg name='addr2'>0x7ffdab596fff</arg>
	</msg>
	<!-- Module loaded c:\windows\system32\rasadhlp.dll, address range [0x00007ffd98710000-0x00007ffd98719fff] -->
	<msg id='52' source='mc'>
		<type>MODULE_LOAD</type>
		<severity>INFO</severity>
		<timestamp>Thu Jul 16 23:16:42 2020</timestamp>
		<arg name='path'>c:\windows\system32\rasadhlp.dll</arg>
		<arg name='addr1'>0x7ffd98710000</arg>
		<arg name='addr2'>0x7ffd98719fff</arg>
	</msg>
	<!-- Module loaded c:\windows\system32\fwpuclnt.dll, address range [0x00007ffd9d1e0000-0x00007ffd9d258fff] -->
	<msg id='53' source='mc'>
		<type>MODULE_LOAD</type>
		<severity>INFO</severity>
		<timestamp>Thu Jul 16 23:16:42 2020</timestamp>
		<arg name='path'>c:\windows\system32\fwpuclnt.dll</arg>
		<arg name='addr1'>0x7ffd9d1e0000</arg>
		<arg name='addr2'>0x7ffd9d258fff</arg>
	</msg>
	<!-- DIAG: 2 -->
	<!-- Module loaded c:\windows\system32\wkscli.dll, address range [0x00007ffda18a0000-0x00007ffda18b6fff] -->
	<msg id='54' source='mc'>
		<type>MODULE_LOAD</type>
		<severity>INFO</severity>
		<timestamp>Thu Jul 16 23:16:43 2020</timestamp>
		<arg name='path'>c:\windows\system32\wkscli.dll</arg>
		<arg name='addr1'>0x7ffda18a0000</arg>
		<arg name='addr2'>0x7ffda18b6fff</arg>
	</msg>
	<!-- Module loaded c:\windows\system32\cscapi.dll, address range [0x00007ffd90300000-0x00007ffd90311fff] -->
	<msg id='55' source='mc'>
		<type>MODULE_LOAD</type>
		<severity>INFO</severity>
		<timestamp>Thu Jul 16 23:16:43 2020</timestamp>
		<arg name='path'>c:\windows\system32\cscapi.dll</arg>
		<arg name='addr1'>0x7ffd90300000</arg>
		<arg name='addr2'>0x7ffd90311fff</arg>
	</msg>
	<!-- Module loaded c:\windows\system32\uxtheme.dll, address range [0x00007ffda9f50000-0x00007ffda9febfff], minimal analysis -->
	<msg id='56' source='mc'>
		<type>MODULE_LOAD_NO_ANALYSIS</type>
		<severity>INFO</severity>
		<timestamp>Thu Jul 16 23:16:43 2020</timestamp>
		<arg name='path'>c:\windows\system32\uxtheme.dll</arg>
		<arg name='addr1'>0x7ffda9f50000</arg>
		<arg name='addr2'>0x7ffda9febfff</arg>
	</msg>
	<!-- DIAG: 3 -->
	<!-- DIAG: 4 -->
	<!-- Process c:\users\autologon\desktop\dbs211_final_project\x64\release\dbs211_final_project.exe exited with code 0. Leak analysis starting - this may take a while. -->
	<msg id='57' source='mc'>
		<type>PROCESS_COMPLETE</type>
		<severity>INFO</severity>
		<timestamp>Thu Jul 16 23:16:48 2020</timestamp>
		<arg name='path'>c:\users\autologon\desktop\dbs211_final_project\x64\release\dbs211_final_project.exe</arg>
		<arg name='code'>0</arg>
	</msg>
	<!-- DIAG: 5 -->
	<!-- DIAG: 6 -->
	<!-- DIAG: 7 -->
	<!-- DIAG: 8 -->
	<!-- DIAG: 9 -->
	<!-- DIAG: 10 -->
	<!-- DIAG: 11 -->
	<!-- DIAG: 12 -->
	<!-- DIAG: 13 -->
	<!-- DIAG: 14 -->
	<!-- DIAG: 15 -->
	<!-- DIAG: 16 -->
	<!-- DIAG: 17 -->
	<!-- DIAG: 18 -->
	<!-- DIAG: 19 -->
	<!-- DIAG: 20 -->
	<!-- DIAG: 21 -->
	<!-- DIAG: 22 -->
	<!-- DIAG: 23 -->
	<!-- DIAG: 24 -->
	<!-- DIAG: 25 -->
	<!-- DIAG: 26 -->
	<!-- DIAG: 27 -->
	<!-- DIAG: 28 -->
	<!-- DIAG: 29 -->
	<!-- DIAG: 30 -->
	<!-- DIAG: 31 -->
	<!-- DIAG: 32 -->
	<!-- DIAG: 33 -->
	<!-- DIAG: 34 -->
	<!-- DIAG: 35 -->
	<!-- DIAG: 36 -->
	<!-- DIAG: 37 -->
	<!-- DIAG: 38 -->
	<!-- DIAG: 39 -->
	<!-- DIAG: 40 -->
	<!-- DIAG: 41 -->
	<!-- DIAG: 42 -->
	<!-- DIAG: 43 -->
	<!-- DIAG: 44 -->
	<!-- DIAG: 45 -->
	<!-- DIAG: 46 -->
	<!-- DIAG: 47 -->
	<!-- DIAG: 48 -->
	<!-- DIAG: 49 -->
	<!-- DIAG: 50 -->
	<!-- DIAG: 51 -->
	<!-- DIAG: 52 -->
	<!-- DIAG: 53 -->
	<!-- DIAG: 54 -->
	<!-- DIAG: 55 -->
	<!-- DIAG: 56 -->
	<!-- DIAG: 57 -->
	<!-- DIAG: 58 -->
	<!-- DIAG: 59 -->
	<!-- DIAG: 60 -->
	<!-- DIAG: 61 -->
	<!-- DIAG: 62 -->
	<!-- DIAG: 63 -->
	<!-- DIAG: 64 -->
	<!-- DIAG: 65 -->
	<!-- DIAG: 66 -->
	<!-- DIAG: 67 -->
	<!-- DIAG: 68 -->
	<!-- DIAG: 69 -->
	<!-- DIAG: 70 -->
	<!-- DIAG: 71 -->
	<!-- DIAG: 72 -->
	<!-- DIAG: 73 -->
	<!-- DIAG: 74 -->
	<!-- DIAG: 75 -->
	<!-- DIAG: 76 -->
	<!-- DIAG: 77 -->
	<!-- DIAG: 78 -->
	<!-- DIAG: 79 -->
	<!-- DIAG: 80 -->
	<!-- DIAG: 81 -->
	<!-- DIAG: 82 -->
	<!-- DIAG: 83 -->
	<!-- DIAG: 84 -->
	<!-- DIAG: 85 -->
	<!-- DIAG: 86 -->
	<!-- DIAG: 87 -->
	<!-- DIAG: 88 -->
	<!-- DIAG: 89 -->
	<!-- DIAG: 90 -->
	<!-- DIAG: 91 -->
	<!-- DIAG: 92 -->
	<!-- DIAG: 93 -->
	<!-- DIAG: 94 -->
	<!-- DIAG: 95 -->
	<!-- DIAG: 96 -->
	<!-- DIAG: 97 -->
	<!-- DIAG: 98 -->
	<!-- DIAG: 99 -->
	<!-- DIAG: 100 -->
	<!-- DIAG: 101 -->
	<!-- DIAG: 102 -->
	<!-- DIAG: 103 -->
	<!-- DIAG: 104 -->
	<!-- DIAG: 105 -->
	<!-- DIAG: 106 -->
	<!-- DIAG: 107 -->
	<!-- DIAG: 108 -->
	<!-- DIAG: 109 -->
	<!-- DIAG: 110 -->
	<!-- DIAG: 111 -->
	<!-- DIAG: 112 -->
	<!-- DIAG: 113 -->
	<!-- DIAG: 114 -->
	<!-- DIAG: 115 -->
	<!-- DIAG: 116 -->
	<!-- DIAG: 117 -->
	<!-- DIAG: 118 -->
	<!-- DIAG: 119 -->
	<!-- DIAG: 120 -->
	<!-- DIAG: 121 -->
	<!-- DIAG: 122 -->
	<!-- DIAG: 123 -->
	<!-- DIAG: 124 -->
	<!-- DIAG: 125 -->
	<!-- DIAG: 126 -->
	<!-- DIAG: 127 -->
	<!-- DIAG: 128 -->
	<!-- DIAG: 129 -->
	<!-- DIAG: 130 -->
	<!-- DIAG: 131 -->
	<!-- DIAG: 132 -->
	<!-- DIAG: 133 -->
	<!-- DIAG: 134 -->
	<!-- DIAG: 135 -->
	<!-- DIAG: 136 -->
	<!-- DIAG: 137 -->
	<!-- DIAG: 138 -->
	<!-- DIAG: 139 -->
	<!-- DIAG: 140 -->
	<!-- DIAG: 141 -->
	<!-- DIAG: 142 -->
	<!-- DIAG: 143 -->
	<!-- DIAG: 144 -->
	<!-- DIAG: 145 -->
	<!-- DIAG: 146 -->
	<!-- DIAG: 147 -->
	<!-- DIAG: 148 -->
	<!-- DIAG: 149 -->
	<!-- DIAG: 150 -->
	<!-- DIAG: 151 -->
	<!-- DIAG: 152 -->
	<!-- DIAG: 153 -->
	<!-- DIAG: 154 -->
	<!-- DIAG: 155 -->
	<!-- DIAG: 156 -->
	<!-- DIAG: 157 -->
	<!-- DIAG: 158 -->
	<!-- DIAG: 159 -->
	<!-- DIAG: 160 -->
	<!-- DIAG: 161 -->
	<!-- DIAG: 162 -->
	<!-- DIAG: 163 -->
	<!-- DIAG: 164 -->
	<!-- DIAG: 165 -->
	<!-- DIAG: 166 -->
	<!-- DIAG: 167 -->
	<!-- DIAG: 168 -->
	<!-- DIAG: 169 -->
	<!-- DIAG: 170 -->
	<!-- DIAG: 171 -->
	<!-- DIAG: 172 -->
	<!-- DIAG: 173 -->
	<!-- DIAG: 174 -->
	<!-- DIAG: 175 -->
	<!-- DIAG: 176 -->
	<!-- DIAG: 177 -->
	<!-- DIAG: 178 -->
	<!-- DIAG: 179 -->
	<!-- DIAG: 180 -->
	<!-- DIAG: 181 -->
	<!-- DIAG: 182 -->
	<!-- DIAG: 183 -->
	<!-- DIAG: 184 -->
	<!-- DIAG: 185 -->
	<!-- DIAG: 186 -->
	<!-- DIAG: 187 -->
	<!-- DIAG: 188 -->
	<!-- DIAG: 189 -->
	<!-- DIAG: 190 -->
	<!-- DIAG: 191 -->
	<!-- DIAG: 192 -->
	<!-- DIAG: 193 -->
	<!-- DIAG: 194 -->
	<!-- DIAG: 195 -->
	<!-- DIAG: 196 -->
	<!-- DIAG: 197 -->
	<!-- DIAG: 198 -->
	<!-- DIAG: 199 -->
	<!-- DIAG: 200 -->
	<!-- DIAG: 201 -->
	<!-- DIAG: 202 -->
	<!-- DIAG: 203 -->
	<!-- DIAG: 204 -->
	<!-- DIAG: 205 -->
	<!-- DIAG: 206 -->
	<!-- DIAG: 207 -->
	<!-- DIAG: 208 -->
	<!-- DIAG: 209 -->
	<!-- DIAG: 210 -->
	<!-- DIAG: 211 -->
	<!-- DIAG: 212 -->
	<!-- DIAG: 213 -->
	<!-- DIAG: 214 -->
	<!-- DIAG: 215 -->
	<!-- DIAG: 216 -->
	<!-- DIAG: 217 -->
	<!-- DIAG: 218 -->
	<!-- DIAG: 219 -->
	<!-- DIAG: 220 -->
	<!-- DIAG: 221 -->
	<!-- DIAG: 222 -->
	<!-- DIAG: 223 -->
	<!-- DIAG: 224 -->
	<!-- DIAG: 225 -->
	<!-- DIAG: 226 -->
	<!-- DIAG: 227 -->
	<!-- DIAG: 228 -->
	<!-- DIAG: 229 -->
	<!-- DIAG: 230 -->
	<!-- DIAG: 231 -->
	<!-- DIAG: 232 -->
	<!-- DIAG: 233 -->
	<!-- DIAG: 234 -->
	<!-- DIAG: 235 -->
	<!-- DIAG: 236 -->
	<!-- DIAG: 237 -->
	<!-- DIAG: 238 -->
	<!-- DIAG: 239 -->
	<!-- DIAG: 240 -->
	<!-- DIAG: 241 -->
	<!-- DIAG: 242 -->
	<!-- DIAG: 243 -->
	<!-- DIAG: 244 -->
	<!-- DIAG: 245 -->
	<!-- DIAG: 246 -->
	<!-- DIAG: 247 -->
	<!-- DIAG: 248 -->
	<!-- DIAG: 249 -->
	<!-- DIAG: 250 -->
	<!-- DIAG: 251 -->
	<!-- DIAG: 252 -->
	<!-- DIAG: 253 -->
	<!-- DIAG: 254 -->
	<!-- DIAG: 255 -->
	<!-- DIAG: 256 -->
	<!-- DIAG: 257 -->
	<!-- DIAG: 258 -->
	<!-- DIAG: 259 -->
	<!-- DIAG: 260 -->
	<!-- DIAG: 261 -->
	<!-- DIAG: 262 -->
	<!-- DIAG: 263 -->
	<!-- DIAG: 264 -->
	<!-- DIAG: 265 -->
	<!-- DIAG: 266 -->
	<!-- DIAG: 267 -->
	<!-- DIAG: 268 -->
	<!-- DIAG: 269 -->
	<!-- DIAG: 270 -->
	<!-- DIAG: 271 -->
	<!-- DIAG: 272 -->
	<!-- DIAG: 273 -->
	<!-- DIAG: 274 -->
	<!-- DIAG: 275 -->
	<!-- DIAG: 276 -->
	<!-- DIAG: 277 -->
	<!-- DIAG: 278 -->
	<!-- DIAG: 279 -->
	<!-- DIAG: 280 -->
	<!-- DIAG: 281 -->
	<!-- DIAG: 282 -->
	<!-- DIAG: 283 -->
	<!-- DIAG: 284 -->
	<!-- DIAG: 285 -->
	<!-- DIAG: 286 -->
	<!-- DIAG: 287 -->
	<!-- DIAG: 288 -->
	<!-- DIAG: 289 -->
	<!-- DIAG: 290 -->
	<!-- DIAG: 291 -->
	<!-- DIAG: 292 -->
	<!-- DIAG: 293 -->
	<!-- DIAG: 294 -->
	<!-- DIAG: 295 -->
	<!-- DIAG: 296 -->
	<!-- DIAG: 297 -->
	<!-- DIAG: 298 -->
	<!-- DIAG: 299 -->
	<!-- DIAG: 300 -->
	<!-- DIAG: 301 -->
	<!-- DIAG: 302 -->
	<!-- DIAG: 303 -->
	<!-- DIAG: 304 -->
	<!-- DIAG: 305 -->
	<!-- DIAG: 306 -->
	<!-- Analysis completed for c:\users\autologon\desktop\dbs211_final_project\x64\release\dbs211_final_project.exe -->
	<msg id='58' source='mc'>
		<type>ANALYSIS_COMPLETE</type>
		<severity>INFO</severity>
		<timestamp>Thu Jul 16 23:16:48 2020</timestamp>
		<arg name='path'>c:\users\autologon\desktop\dbs211_final_project\x64\release\dbs211_final_project.exe</arg>
	</msg>